Evaluating the Determinants and Evolution of Clinical Trial Outcome Significance • bis620.2023
…
Data Inspection

The table countries has 654,096 rows and 4 columns. The
name column indicates the countries where the trials are
conducted and the removed column indicates whether the
countries are from removed_countries table. In addition,
there are 81 missing values in the name column. There are
227 distinct countries in total. Furthermore, the number of
cross-countries clinical trials are 39,753.

countries
#> # A tibble: 654,096 × 4
#>          id nct_id      name          removed
#>       <dbl> <chr>       <chr>         <lgl>  
#>  1 52996792 NCT04584346 United States FALSE  
#>  2 52996793 NCT01079858 United States TRUE   
#>  3 52865950 NCT02707549 Brazil        FALSE  
#>  4 52996794 NCT01081860 Netherlands   FALSE  
#>  5 52996795 NCT05124782 France        FALSE  
#>  6 52996796 NCT05039788 France        FALSE  
#>  7 52996797 NCT00118482 United States FALSE  
#>  8 52996798 NCT00118482 Canada        FALSE  
#>  9 52996799 NCT03966950 Brazil        FALSE  
#> 10 52996800 NCT03755752 Egypt         FALSE  
#> # ℹ 654,086 more rows
…
countries |> group_by(nct_id) |> summarise(n = n()) |> filter(n >= 2) |> count()
#> # A tibble: 1 × 1
#>       n
#>   <int>
#> 1 39753

The table outcome_analyses has 256,592 rows and 22
columns. In our project, we mainly consider the p_value
column. There are 45,622 missing values in the name
column.

outcome_analyses
#> # A tibble: 256,592 × 22
#>          id nct_id      outcome_id non_inferiority_type non_inferiority_descri…¹
#>       <dbl> <chr>            <dbl> <chr>                <chr>                   
#>  1 18909128 NCT03989232   35195693 Superiority          NA                      
#>  2 18909129 NCT03989232   35195693 Superiority          NA                      
#>  3 19011925 NCT01860846   35422200 Superiority or Other NA                      
#>  4 18909130 NCT02584504   35195706 Superiority          NA                      
#>  5 18909131 NCT02584504   35195706 Superiority          NA                      
#>  6 18909132 NCT02584504   35195706 Other                Statistical test was no…
#>  7 18909133 NCT02584504   35195707 Superiority          NA                      
#>  8 18909134 NCT02584504   35195707 Superiority          NA                      
#>  9 18909135 NCT02584504   35195708 Superiority          NA                      
#> 10 18909136 NCT02584504   35195708 Superiority          NA                      
#> # ℹ 256,582 more rows
#> # ℹ abbreviated name: ¹​non_inferiority_description
#> # ℹ 17 more variables: param_type <chr>, param_value <dbl>,
#> #   dispersion_type <chr>, dispersion_value <dbl>, p_value_modifier <chr>,
#> #   p_value <dbl>, ci_n_sides <chr>, ci_percent <dbl>, ci_lower_limit <dbl>,
#> #   ci_upper_limit <dbl>, ci_upper_limit_na_comment <chr>,
#> #   p_value_description <chr>, method <chr>, method_description <chr>, …
outcome_analyses |> select(p_value) |> is.na() |> colSums()
#> p_value 
#>   45622

The table calculated_values has 467,212 rows and 19
columns. In our project, we mainly consider the
number_of_facilities, actual_duration,
has_us_facility columns. There are 50,012, 185,328, and
50012 missing values in the number_of_facilities,
actual_duration, has_us_facility columns
respectively. In addition, there are 166,148 trials with facilities from
USA.

calculated_values
#> # A tibble: 467,212 × 19
#>           id nct_id      number_of_facilities number_of_nsae_subjects
#>        <dbl> <chr>                      <dbl>                   <dbl>
#>  1 275718269 NCT05354973                    1                      NA
#>  2 275739505 NCT04406233                    1                      NA
#>  3 275749805 NCT05064124                    1                      NA
#>  4 275833878 NCT05970133                    1                      NA
#>  5 276028358 NCT02661880                   NA                      NA
#>  6 275772178 NCT05065788                    1                      NA
#>  7 275760496 NCT04926558                    1                      NA
#>  8 275751352 NCT04280367                    1                      NA
#>  9 275714902 NCT05289154                    1                      NA
#> 10 275758499 NCT04281927                    1                      NA
#> # ℹ 467,202 more rows
#> # ℹ 15 more variables: number_of_sae_subjects <dbl>,
#> #   registered_in_calendar_year <dbl>, nlm_download_date <lgl>,
#> #   actual_duration <dbl>, were_results_reported <lgl>,
#> #   months_to_report_results <dbl>, has_us_facility <lgl>,
#> #   has_single_facility <lgl>, minimum_age_num <dbl>, maximum_age_num <dbl>,
#> #   minimum_age_unit <chr>, maximum_age_unit <chr>, …
…
d <- outcome_analyses_processed |> left_join(countries_processed, by="nct_id") |> left_join(calculated_values_processed, by="nct_id") |> filter(!is.na(name) & !is.na(number_of_facilities) & !is.na(actual_duration) & !is.na(has_us_facility)) |> filter(p_value >= 0 & p_value <= 1) |> distinct()
#> Warning in left_join(outcome_analyses_processed, countries_processed, by = "nct_id"): Detected an unexpected many-to-many relationship between `x` and `y`.
#> ℹ Row 1 of `x` matches multiple rows in `y`.
#> ℹ Row 509472 of `y` matches multiple rows in `x`.
#> ℹ If a many-to-many relationship is expected, set `relationship =
#>   "many-to-many"` to silence this warning.

valid_countries <- d |> select(nct_id, name) |> distinct() |> group_by(name) |> summarise(n = n()) |> filter(n > 10) |> select(name) |> as.vector() |> unlist()
d <- d |> filter(name %in% valid_countries)
d
#> # A tibble: 746,903 × 6
#>    nct_id     p_value name  number_of_facilities actual_duration has_us_facility
#>    <chr>        <dbl> <chr>                <dbl>           <dbl> <lgl>          
#>  1 NCT039892…  0.0003 Unit…                  129              15 TRUE           
#>  2 NCT039892…  0.0003 Bulg…                  129              15 TRUE           
#>  3 NCT039892…  0.0003 Cana…                  129              15 TRUE           
#>  4 NCT039892…  0.0003 Czec…                  129              15 TRUE           
#>  5 NCT039892…  0.0003 Gree…                  129              15 TRUE           
#>  6 NCT039892…  0.0003 Hung…                  129              15 TRUE           
#>  7 NCT039892…  0.0003 Japan                  129              15 TRUE           
#>  8 NCT039892…  0.0003 Pola…                  129              15 TRUE           
#>  9 NCT039892…  0.0003 Puer…                  129              15 TRUE           
#> 10 NCT039892…  0.0003 Slov…                  129              15 TRUE           
#> # ℹ 746,893 more rows
…
Furthermore, we compare the distribution of p values of the trials
conducted in the top 3 countries with most number of trials. From the
three density plots, we do not see any differences among their
distributions of the p values.

d |> select(nct_id, name) |> distinct() |> group_by(name) |> summarise(n = n()) |> arrange(desc(n))
#> # A tibble: 92 × 2
#>    name                   n
#>    <chr>              <int>
#>  1 United States      12617
#>  2 Canada              3035
#>  3 Germany             3017
#>  4 United Kingdom      2581
#>  5 Spain               2427
#>  6 France              2235
#>  7 Italy               2137
#>  8 Poland              2107
#>  9 Australia           1720
#> 10 Russian Federation  1709
#> # ℹ 82 more rows
…
#> ℹ In argument: `across(where(is.numeric), sum, na.rm = TRUE)`.
#> ℹ In group 1: `nct_id = "NCT00000378"`.
#> Caused by warning:
#> ! The `...` argument of `across()` is deprecated as of dplyr 1.1.0.
#> Supply arguments directly to `.fns` through an anonymous function instead.
#> 
#>   # Previously
#>   across(a:b, mean, na.rm = TRUE)
#> 
#>   # Now
#>   across(a:b, \(x) mean(x, na.rm = TRUE))
d <- d |> select(-name) |> distinct() |> group_by(nct_id) |> summarise(across(where(is.numeric), mean, na.rm = TRUE))
d <- d |> inner_join(d_tmp, by = "nct_id")
d
#> # A tibble: 12,314 × 96
#>    nct_id p_value number_of_facilities actual_duration nameAlgeria nameArgentina
#>    <chr>    <dbl>                <dbl>           <dbl>       <dbl>         <dbl>
#>  1 NCT00… -2.94                      1              59           0             0
#>  2 NCT00… -1.52                      3              80           0             0
#>  3 NCT00… -2.24                      7             118           0             0
#>  4 NCT00… -0.275                     1             133           0             0
#>  5 NCT00… -4.94                      1             163           0             0
#>  6 NCT00… -3.12                      1             107           0             0
#>  7 NCT00…  0.0905                    1             260           0             0
#>  8 NCT00… -3.50                     14             220           0             0
#>  9 NCT00… -3.70                      1              65           0             0
#> 10 NCT00… -1.13                      1             110           0             0
#> # ℹ 12,304 more rows
#> # ℹ 90 more variables: nameAustralia <dbl>, nameAustria <dbl>,
#> #   nameBangladesh <dbl>, nameBelarus <dbl>, nameBelgium <dbl>,
#> #   `nameBosnia and Herzegovina` <dbl>, nameBotswana <dbl>, nameBrazil <dbl>,
#> #   nameBulgaria <dbl>, nameCanada <dbl>, nameChile <dbl>, nameChina <dbl>,
#> #   nameColombia <dbl>, `nameCosta Rica` <dbl>, nameCroatia <dbl>,
#> #   nameCyprus <dbl>, `nameCzech Republic` <dbl>, nameCzechia <dbl>, …
…
any_na_in_data <- any(is.na(d_longitudinal))
print(any_na_in_data)
#> [1] FALSE

We then check for missing values in our merged dataset,
d_longitudinal. The above code checks for any NA (Not
Available) values in the dataset.

d_longitudinal
#> # A tibble: 12,314 × 97
#>    nct_id p_value number_of_facilities actual_duration nameAlgeria nameArgentina
#>    <chr>    <dbl>                <dbl>           <dbl>       <dbl>         <dbl>
#>  1 NCT00… -2.94                      1              59           0             0
#>  2 NCT00… -1.52                      3              80           0             0
#>  3 NCT00… -2.24                      7             118           0             0
#>  4 NCT00… -0.275                     1             133           0             0
#>  5 NCT00… -4.94                      1             163           0             0
#>  6 NCT00… -3.12                      1             107           0             0
#>  7 NCT00…  0.0905                    1             260           0             0
#>  8 NCT00… -3.50                     14             220           0             0
#>  9 NCT00… -3.70                      1              65           0             0
#> 10 NCT00… -1.13                      1             110           0             0
#> # ℹ 12,304 more rows
#> # ℹ 91 more variables: nameAustralia <dbl>, nameAustria <dbl>,
#> #   nameBangladesh <dbl>, nameBelarus <dbl>, nameBelgium <dbl>,
#> #   `nameBosnia and Herzegovina` <dbl>, nameBotswana <dbl>, nameBrazil <dbl>,
#> #   nameBulgaria <dbl>, nameCanada <dbl>, nameChile <dbl>, nameChina <dbl>,
#> #   nameColombia <dbl>, `nameCosta Rica` <dbl>, nameCroatia <dbl>,
#> #   nameCyprus <dbl>, `nameCzech Republic` <dbl>, nameCzechia <dbl>, …
…
